This is BibTeX, Version 0.99d (TeX Live 2020/Arch Linux)
Capacity: max_strings=100000, hash_size=100000, hash_prime=85009
The top-level auxiliary file: report.aux
The style file: ieeetr.bst
Database file #1: ./references/refs.bib
Warning--entry type for "DeepGenerativeModelingLecture" isn't style-file defined
--line 149 of file ./references/refs.bib
Warning--entry type for "GANTraining" isn't style-file defined
--line 157 of file ./references/refs.bib
Warning--empty journal in Goodfellow-GAN
Warning--empty journal in HubelWiesel
Warning--empty title in MichaelAdvances
Warning--empty publisher in MichaelAdvances
Warning--empty journal in DeepLearning-Alexey
Warning--there's a month but no year in DeepLearning-LeCun
You've used 17 entries,
            1876 wiz_defined-function locations,
            576 strings with 6441 characters,
and the built_in function-call counts, 3525 in all, are:
= -- 280
> -- 209
< -- 0
+ -- 76
- -- 59
* -- 256
:= -- 544
add.period$ -- 17
call.type$ -- 17
change.case$ -- 16
chr.to.int$ -- 0
cite$ -- 23
duplicate$ -- 155
empty$ -- 363
format.name$ -- 59
if$ -- 831
int.to.chr$ -- 0
int.to.str$ -- 17
missing$ -- 10
newline$ -- 54
num.names$ -- 19
pop$ -- 86
preamble$ -- 1
purify$ -- 0
quote$ -- 0
skip$ -- 97
stack$ -- 0
substring$ -- 109
swap$ -- 37
text.length$ -- 0
text.prefix$ -- 0
top$ -- 0
type$ -- 0
warning$ -- 6
while$ -- 25
width$ -- 19
write$ -- 140
(There were 8 warnings)
